# lsting

    Code
      print(data_snap[[i]])
    Output
      # A tibble: 2,800 x 9
         CRTNPT       AVISIT        EXSTDY EXENDY TRT01A   AVAL AVALU EXDOSFRQ EXROUTE
         <lstng_ky>   <lstng_ky>     <int>  <int> <fct>   <dbl> <fct> <chr>    <chr>  
       1 BRA-1/id-105 SCREENING         -1     -1 A: Dru~   960 mg    ONCE     INTRAV~
       2 BRA-1/id-105 BASELINE           1      1 A: Dru~   960 mg    ONCE     INTRAV~
       3 BRA-1/id-105 WEEK 1 DAY 8       8      8 A: Dru~   720 mg    ONCE     SUBCUT~
       4 BRA-1/id-105 WEEK 2 DAY 15     15     15 A: Dru~   480 mg    ONCE     INTRAV~
       5 BRA-1/id-105 WEEK 3 DAY 22     22     22 A: Dru~   480 mg    ONCE     INTRAV~
       6 BRA-1/id-105 WEEK 4 DAY 29     29     29 A: Dru~   720 mg    ONCE     INTRAV~
       7 BRA-1/id-105 WEEK 5 DAY 36     36     36 A: Dru~   720 mg    ONCE     INTRAV~
       8 BRA-1/id-134 SCREENING         -1     -1 A: Dru~   960 mg    ONCE     INTRAV~
       9 BRA-1/id-134 BASELINE           1      1 A: Dru~   720 mg    ONCE     INTRAV~
      10 BRA-1/id-134 WEEK 1 DAY 8       8      8 A: Dru~   720 mg    ONCE     INTRAV~
      # i 2,790 more rows
