# lsting

    Code
      print(data_snap[[i]])
    Output
      # A tibble: 798 x 7
         TRT01A     USUBJID            AVISIT `Renal CL (L/hr)` Renal CL Norm by Dos~1
         <lstng_ky> <lstng_ky>         <lstn>             <dbl>                  <dbl>
       1 A: Drug X  AB12345-BRA-1-id-~ SCREE~            0.0538                0.00442
       2 A: Drug X  AB12345-BRA-1-id-~ CYCLE~            0.0481                0.00418
       3 A: Drug X  AB12345-BRA-1-id-~ CYCLE~            0.0524                0.00575
       4 A: Drug X  AB12345-BRA-1-id-~ SCREE~            0.0548                0.00489
       5 A: Drug X  AB12345-BRA-1-id-~ CYCLE~            0.0464                0.00281
       6 A: Drug X  AB12345-BRA-1-id-~ CYCLE~            0.0543                0.00480
       7 A: Drug X  AB12345-BRA-1-id-~ SCREE~            0.0480                0.00621
       8 A: Drug X  AB12345-BRA-1-id-~ CYCLE~            0.0601                0.00424
       9 A: Drug X  AB12345-BRA-1-id-~ CYCLE~            0.0222                0.00415
      10 A: Drug X  AB12345-BRA-1-id-~ SCREE~            0.0429                0.00451
      # i 788 more rows
      # i abbreviated name: 1: `Renal CL Norm by Dose (L/hr/mg)`
      # i 2 more variables: `Amt Rec from T1 to T2 (mg)` <dbl>,
      #   `Pct Rec from T1 to T2 (%)` <dbl>
