# listings/exposure/exl01.qmd lsting stable

    Code
      print(data_snap[[i]])
    Output
      # A tibble: 2,800 x 9
         TRT01A     CRTNPT       AVISIT        EXSTDY EXENDY  AVAL AVALU EXDOSFRQ
         <lstng_ky> <lstng_ky>   <lstng_ky>     <int>  <int> <dbl> <fct> <chr>   
       1 A: Drug X  BRA-1/id-105 SCREENING         -1     -1   960 mg    ONCE    
       2 A: Drug X  BRA-1/id-105 BASELINE           1      1   960 mg    ONCE    
       3 A: Drug X  BRA-1/id-105 WEEK 1 DAY 8       8      8   720 mg    ONCE    
       4 A: Drug X  BRA-1/id-105 WEEK 2 DAY 15     15     15   480 mg    ONCE    
       5 A: Drug X  BRA-1/id-105 WEEK 3 DAY 22     22     22   480 mg    ONCE    
       6 A: Drug X  BRA-1/id-105 WEEK 4 DAY 29     29     29   720 mg    ONCE    
       7 A: Drug X  BRA-1/id-105 WEEK 5 DAY 36     36     36   720 mg    ONCE    
       8 A: Drug X  BRA-1/id-134 SCREENING         -1     -1   960 mg    ONCE    
       9 A: Drug X  BRA-1/id-134 BASELINE           1      1   720 mg    ONCE    
      10 A: Drug X  BRA-1/id-134 WEEK 1 DAY 8       8      8   720 mg    ONCE    
         EXROUTE     
         <chr>       
       1 INTRAVENOUS 
       2 INTRAVENOUS 
       3 SUBCUTANEOUS
       4 INTRAVENOUS 
       5 INTRAVENOUS 
       6 INTRAVENOUS 
       7 INTRAVENOUS 
       8 INTRAVENOUS 
       9 INTRAVENOUS 
      10 INTRAVENOUS 
      # i 2,790 more rows
