# listings/development-safety-update-report/dsur4.qmd lsting stable

    Code
      print(data_snap[[i]])
    Output
      # A tibble: 70 x 3
         ARM        ID            DTHCAUS            
         <lstng_ky> <chr>         <fct>              
       1 A: Drug X  CHN-3/id-128  ADVERSE EVENT      
       2 A: Drug X  RUS-1/id-52   DISEASE PROGRESSION
       3 A: Drug X  CHN-1/id-235  ADVERSE EVENT      
       4 A: Drug X  CHN-5/id-108  MISSING            
       5 A: Drug X  CHN-17/id-182 LOST TO FOLLOW UP  
       6 A: Drug X  BRA-11/id-217 ADVERSE EVENT      
       7 A: Drug X  CHN-15/id-14  DISEASE PROGRESSION
       8 A: Drug X  CHN-2/id-274  SUICIDE            
       9 A: Drug X  USA-11/id-339 UNKNOWN            
      10 A: Drug X  BRA-15/id-36  DISEASE PROGRESSION
      # i 60 more rows
