# listings/lab-results/lbl02b.qmd stable

    Code
      print(data_snap[[i]])
    Output
      # A tibble: 1,112 x 10
         TRT01A     LBTEST                               CPID           ADY ADTM     
         <lstng_ky> <lstng_ky>                           <lstng_ky>   <int> <chr>    
       1 A: Drug X  Alanine Aminotransferase Measurement BRA-1/id-105    80 27MAY2020
       2 A: Drug X  Alanine Aminotransferase Measurement BRA-1/id-105   398 10APR2021
       3 A: Drug X  Alanine Aminotransferase Measurement CAN-1/id-18    465 12APR2022
       4 A: Drug X  Alanine Aminotransferase Measurement CHN-1/id-133   127 13DEC2020
       5 A: Drug X  Alanine Aminotransferase Measurement CHN-1/id-133   197 21FEB2021
       6 A: Drug X  Alanine Aminotransferase Measurement CHN-1/id-199   277 11OCT2020
       7 A: Drug X  Alanine Aminotransferase Measurement CHN-1/id-199   672 10NOV2021
       8 A: Drug X  Alanine Aminotransferase Measurement CHN-1/id-235   348 25JUN2020
       9 A: Drug X  Alanine Aminotransferase Measurement CHN-1/id-275   364 01JUN2021
      10 A: Drug X  Alanine Aminotransferase Measurement CHN-1/id-277   483 12MAY2022
           DLD AVAL   AVALU LBNRNG     ANRIND_GR
         <dbl> <chr>  <fct> <chr>      <fct>    
       1     0 " 4.3" U/L   7.0 - 55.0 L4       
       2   318 " 3.7" U/L   7.0 - 55.0 L3       
       3     0 " 1.8" U/L   7.0 - 55.0 L2       
       4     0 " 5.6" U/L   7.0 - 55.0 L2       
       5    70 " 1.2" U/L   7.0 - 55.0 L4       
       6     0 " 5.3" U/L   7.0 - 55.0 L4       
       7   395 " 6.8" U/L   7.0 - 55.0 L2       
       8     0 " 3.0" U/L   7.0 - 55.0 L3       
       9     0 " 5.1" U/L   7.0 - 55.0 L2       
      10     0 " 1.1" U/L   7.0 - 55.0 L4       
      # i 1,102 more rows
