# lsting

    Code
      print(data_snap[[i]])
    Output
      # A tibble: 1,934 x 13
         CPID     ASR   TRT01A AEDECOD Date_First ASTDY Duration Serious AESEV Related
         <lstng_> <lst> <lstn> <fct>   <chr>      <int>    <dbl> <chr>   <fct> <chr>  
       1 BRA-1/i~ 47/M~ A: Dr~ dcd B.~ 04NOV2020    162      173 No      MODE~ No     
       2 BRA-1/i~ 47/M~ A: Dr~ dcd D.~ 04NOV2020    196      166 No      MODE~ No     
       3 BRA-1/i~ 47/M~ A: Dr~ dcd A.~ 04NOV2020    321      149 Yes     MODE~ No     
       4 BRA-1/i~ 47/M~ A: Dr~ dcd A.~ 04NOV2020    393       43 Yes     MODE~ No     
       5 BRA-1/i~ 35/F~ C: Co~ dcd B.~ 25JUL2020    387       11 No      MODE~ No     
       6 BRA-1/i~ 35/F~ C: Co~ dcd D.~ 25JUL2020    455      628 No      MILD  Yes    
       7 BRA-1/i~ 35/F~ C: Co~ dcd A.~ 25JUL2020    739       36 No      MILD  No     
       8 BRA-1/i~ 35/F~ C: Co~ dcd A.~ 25JUL2020    899      139 Yes     MODE~ No     
       9 BRA-1/i~ 35/F~ C: Co~ dcd A.~ 25JUL2020    951       66 No      MILD  No     
      10 BRA-1/i~ 35/F~ C: Co~ dcd D.~ 25JUL2020   1093        3 Yes     SEVE~ Yes    
      # i 1,924 more rows
      # i 3 more variables: Outcome <dbl>, Treated <chr>, Action <dbl>
