# lsting

    Code
      print(data_snap[[i]])
    Output
      # A tibble: 786 x 13
         TRT01A    CPID  ASR   AEDECOD Date_First ASTDY Duration AESEV Related Outcome
         <lstng_k> <lst> <lst> <fct>   <chr>      <int>    <dbl> <fct> <chr>     <dbl>
       1 A: Drug X BRA-~ 47/M~ dcd A.~ 04NOV2020    321      149 MODE~ No            5
       2 A: Drug X BRA-~ 47/M~ dcd A.~ 04NOV2020    393       43 MODE~ No            5
       3 A: Drug X BRA-~ 36/M~ dcd D.~ 01JAN2020     64      630 SEVE~ Yes           1
       4 A: Drug X BRA-~ 36/M~ dcd A.~ 01JAN2020    160      259 MODE~ No            2
       5 A: Drug X BRA-~ 36/M~ dcd B.~ 01JAN2020    292       50 MILD  No            3
       6 A: Drug X BRA-~ 36/M~ dcd A.~ 01JAN2020    459      195 MODE~ No            5
       7 A: Drug X BRA-~ 36/M~ dcd B.~ 01JAN2020    470      131 SEVE~ Yes           1
       8 A: Drug X BRA-~ 36/M~ dcd A.~ 01JAN2020    475      113 MODE~ No            4
       9 A: Drug X BRA-~ 36/M~ dcd B.~ 01JAN2020    641       15 SEVE~ Yes           1
      10 A: Drug X BRA-~ 34/F~ dcd D.~ 20JUN2020    316      250 SEVE~ Yes           1
      # i 776 more rows
      # i 3 more variables: Treated <chr>, Action <dbl>, SERREAS <chr>
