# lsting

    Code
      print(data_snap[[i]])
    Output
      # A tibble: 532 x 13
         TRT01A     USUBJID        VISIT UR_Conc (ug/mL) -\nU~1 Vurine (mL) -\nUrine~2
         <lstng_ky> <lstng_ky>     <lst>                  <dbl>                  <dbl>
       1 A: Drug X  AB12345-BRA-1~ Day 1                      0                   714.
       2 A: Drug X  AB12345-BRA-1~ Day 2                     NA                    NA 
       3 A: Drug X  AB12345-BRA-1~ Day 1                      0                  1069.
       4 A: Drug X  AB12345-BRA-1~ Day 2                     NA                    NA 
       5 A: Drug X  AB12345-BRA-1~ Day 1                      0                   817.
       6 A: Drug X  AB12345-BRA-1~ Day 2                     NA                    NA 
       7 A: Drug X  AB12345-BRA-1~ Day 1                      0                   865.
       8 A: Drug X  AB12345-BRA-1~ Day 2                     NA                    NA 
       9 A: Drug X  AB12345-BRA-1~ Day 1                      0                   725.
      10 A: Drug X  AB12345-BRA-1~ Day 2                     NA                    NA 
      # i 522 more rows
      # i abbreviated names:
      #   1: `UR_Conc (ug/mL) -\nUrine Collection\nInterval:\nredose`,
      #   2: `Vurine (mL) -\nUrine Collection\nInterval:\nredose`
      # i 8 more variables:
      #   `UR_Conc (ug/mL) -\nUrine Collection\nInterval (hours):\n0 - 4` <dbl>,
      #   `Vurine (mL) -\nUrine Collection\nInterval (hours):\n0 - 4` <dbl>, ...
