# lsting

    Code
      print(data_snap[[i]])
    Output
      # A tibble: 24 × 9
         USUBJID               VISIT      ISTPT   NFRLT RES_ADA  TU_ADA RES_NAB  TU_NAB AVAL_pk
         <lstng_ky>            <lstng_ky> <fct>   <dbl> <chr>    <chr>  <chr>    <chr>  <chr>  
       1 AB12345-RUS-16-id-165 Day 2      24H        24 Negative N/A    NA       N/A    0.00   
       2 AB12345-RUS-16-id-165 Day 2      24H        24 NA       N/A    Negative N/A    0.00   
       3 AB12345-RUS-18-id-359 Day 1      Predose     0 NA       BLQ    Positive 1.07   0.00   
       4 AB12345-RUS-18-id-359 Day 1      Predose     0 Positive N/A    NA       N/A    0.00   
       5 AB12345-RUS-18-id-359 Day 2      24H        24 Negative N/A    NA       N/A    0.00   
       6 AB12345-RUS-18-id-359 Day 2      24H        24 NA       N/A    Negative N/A    0.00   
       7 AB12345-RUS-6-id-77   Day 1      Predose     0 Negative N/A    NA       N/A    0.00   
       8 AB12345-RUS-6-id-77   Day 1      Predose     0 NA       N/A    Negative N/A    0.00   
       9 AB12345-RUS-6-id-77   Day 2      24H        24 NA       1.16   Positive 1.16   0.00   
      10 AB12345-RUS-6-id-77   Day 2      24H        24 Positive N/A    NA       N/A    0.00   
      # i 14 more rows
