# lsting

    Code
      print(data_snap[[i]])
    Output
      # A tibble: 3,685 x 14
         ID      AGSXRC TRT01A CMDECOD TRTSD CMASTD ASTDY ADURN CMSTRFL CMENRFL CMDOSE
         <lstng> <lstn> <lstn> <lstng> <chr> <chr>  <int> <int> <chr>   <chr>    <int>
       1 BRA-1/~ 47/M/~ A: Dr~ mednam~ 04NO~ 21SEP~   321  -148 No      No          30
       2 BRA-1/~ 47/M/~ A: Dr~ mednam~ 04NO~ 02DEC~   393   -42 No      No          41
       3 BRA-1/~ 47/M/~ A: Dr~ mednam~ 04NO~ 15APR~   162  -172 No      No          25
       4 BRA-1/~ 47/M/~ A: Dr~ mednam~ 04NO~ 15APR~   162  -172 No      No          25
       5 BRA-1/~ 47/M/~ A: Dr~ mednam~ 04NO~ 15APR~   162  -172 No      No          25
       6 BRA-1/~ 47/M/~ A: Dr~ mednam~ 04NO~ 19MAY~   196  -165 No      No          22
       7 BRA-1/~ 47/M/~ A: Dr~ mednam~ 04NO~ 19MAY~   196  -165 No      No          22
       8 BRA-1/~ 35/F/~ C: Co~ mednam~ 25JU~ 03AUG~   739   -35 No      No          84
       9 BRA-1/~ 35/F/~ C: Co~ mednam~ 25JU~ 10JAN~   899  -138 No      No           1
      10 BRA-1/~ 35/F/~ C: Co~ mednam~ 25JU~ 03MAR~   951   -65 No      No          70
      # i 3,675 more rows
      # i 3 more variables: CMDOSU <fct>, CMDOSFRQ <fct>, CMROUTE <fct>
