# lsting

    Code
      print(data_snap[[i]])
    Output
      # A tibble: 1,934 x 15
         TRT01A    cent_subj ASR   AEDECOD ASTDY  TMOD  TMOH  TMOM ADURN AESER_F AESEV
         <lstng_k> <lstng_k> <lst> <fct>   <int> <dbl> <dbl> <dbl> <dbl> <chr>   <fct>
       1 A: Drug X BRA-1/id~ 47/M~ dcd B.~   162     7    19     4   173 No      MODE~
       2 A: Drug X BRA-1/id~ 47/M~ dcd D.~   196     1    20    48   166 No      MODE~
       3 A: Drug X BRA-1/id~ 47/M~ dcd A.~   321    28    12    54   149 Yes     MODE~
       4 A: Drug X BRA-1/id~ 47/M~ dcd A.~   393    12    19    17    43 Yes     MODE~
       5 A: Drug X BRA-1/id~ 36/M~ dcd C.~    39    30     9     4   506 No      MODE~
       6 A: Drug X BRA-1/id~ 36/M~ dcd D.~    64    26    17    10   630 Yes     SEVE~
       7 A: Drug X BRA-1/id~ 36/M~ dcd C.~    95     4    12    58   306 No      MODE~
       8 A: Drug X BRA-1/id~ 36/M~ dcd A.~   160    24     5    57   259 Yes     MODE~
       9 A: Drug X BRA-1/id~ 36/M~ dcd B.~   292     9    23     4    50 Yes     MILD 
      10 A: Drug X BRA-1/id~ 36/M~ dcd A.~   459     9     5     4   195 Yes     MODE~
      # i 1,924 more rows
      # i 4 more variables: AEREL_F <chr>, AEOUT_F <dbl>, AECONTRT_F <chr>,
      #   AEACN_F <dbl>
