# lsting

    Code
      print(data_snap[[i]])
    Output
      # A tibble: 1,645 x 9
         TRT01A     LBTEST_U            CPID    ADY ADTM    DLD AVAL  LBNRNG ANRIND_GR
         <lstng_ky> <lstng_ky>          <lst> <int> <chr> <dbl> <chr> <chr>  <fct>    
       1 A: Drug X  Alanine Aminotrans~ BRA-~    80 27MA~     0 " 4.~ 7.0 -~ L4       
       2 A: Drug X  Alanine Aminotrans~ BRA-~   398 10AP~   318 " 3.~ 7.0 -~ L3       
       3 A: Drug X  Alanine Aminotrans~ BRA-~   207 13JA~     0 " 6.~ 7.0 -~ L1       
       4 A: Drug X  Alanine Aminotrans~ BRA-~   326 19MA~     0 " 1.~ 7.0 -~ L1       
       5 A: Drug X  Alanine Aminotrans~ BRA-~   594 22JU~     0 " 0.~ 7.0 -~ L1       
       6 A: Drug X  Alanine Aminotrans~ BRA-~   281 30OC~     0 " 2.~ 7.0 -~ L1       
       7 A: Drug X  Alanine Aminotrans~ BRA-~   734 26JA~   453 " 3.~ 7.0 -~ L1       
       8 A: Drug X  Alanine Aminotrans~ CAN-~   465 12AP~     0 " 1.~ 7.0 -~ L2       
       9 A: Drug X  Alanine Aminotrans~ CHN-~   127 13DE~     0 " 5.~ 7.0 -~ L2       
      10 A: Drug X  Alanine Aminotrans~ CHN-~   197 21FE~    70 " 1.~ 7.0 -~ L4       
      # i 1,635 more rows
