# listings/lab-results/lbl02a_rls.qmd stable

    Code
      print(data_snap[[i]])
    Output
      # A tibble: 8,400 x 11
         TRT01A     LBTEST_U                                   CPID           ADY
         <lstng_ky> <lstng_ky>                                 <lstng_ky>   <int>
       1 A: Drug X  Alanine Aminotransferase Measurement (U/L) BRA-1/id-105    80
       2 A: Drug X  Alanine Aminotransferase Measurement (U/L) BRA-1/id-105   149
       3 A: Drug X  Alanine Aminotransferase Measurement (U/L) BRA-1/id-105   314
       4 A: Drug X  Alanine Aminotransferase Measurement (U/L) BRA-1/id-105   398
       5 A: Drug X  Alanine Aminotransferase Measurement (U/L) BRA-1/id-105   470
       6 A: Drug X  Alanine Aminotransferase Measurement (U/L) BRA-1/id-105   528
       7 A: Drug X  Alanine Aminotransferase Measurement (U/L) BRA-1/id-105   535
       8 A: Drug X  Alanine Aminotransferase Measurement (U/L) BRA-1/id-134   225
       9 A: Drug X  Alanine Aminotransferase Measurement (U/L) BRA-1/id-134   227
      10 A: Drug X  Alanine Aminotransferase Measurement (U/L) BRA-1/id-134   255
           DLD AVAL   PCHG        STD_RNG    LBNRNG CRC       ANRIND
         <dbl> <chr>  <chr>       <chr>      <chr>  <chr>     <fct> 
       1     0 " 4.3" "       NA" 5.5 - 31.1 7 - 55 40% / 40% "LL"  
       2    69 "24.7" "      0.0" 5.5 - 31.1 7 - 55 40% / 40% ""    
       3   165 "24.9" "      0.7" 5.5 - 31.1 7 - 55 40% / 40% ""    
       4    84 " 3.7" "    -85.2" 5.5 - 31.1 7 - 55 40% / 40% "LL"  
       5    72 "18.5" "    -24.9" 5.5 - 31.1 7 - 55 40% / 40% ""    
       6    58 " 7.7" "    -68.7" 5.5 - 31.1 7 - 55 40% / 40% ""    
       7     7 "23.5" "     -4.8" 5.5 - 31.1 7 - 55 40% / 40% ""    
       8     0 " 7.4" "       NA" 5.5 - 31.1 7 - 55 40% / 40% ""    
       9     2 "16.4" "      0.0" 5.5 - 31.1 7 - 55 40% / 40% ""    
      10    28 "11.2" "    -32.0" 5.5 - 31.1 7 - 55 40% / 40% ""    
      # i 8,390 more rows
