# lsting

    Code
      print(data_snap[[i]])
    Output
      # A tibble: 266 x 7
         USUBJID  AUC Infinity Obs (da~1 AUC Infinity Obs (da~2 AUC Infinity Obs (da~3
         <lstng_>                  <dbl>                  <dbl>                  <dbl>
       1 AB12345~                   246.                    NA                  NA    
       2 AB12345~                   249.                    NA                  NA    
       3 AB12345~                   204.                   192.                  1.06 
       4 AB12345~                   196.                   219.                  0.898
       5 AB12345~                   211.                    NA                  NA    
       6 AB12345~                   160.                    NA                  NA    
       7 AB12345~                   218.                   181.                  1.20 
       8 AB12345~                   272.                    NA                  NA    
       9 AB12345~                   148.                   194.                  0.765
      10 AB12345~                   206.                   216.                  0.952
      # i 256 more rows
      # i abbreviated names: 1: `AUC Infinity Obs (day*ug/mL)\nPlasma Drug X`,
      #   2: `AUC Infinity Obs (day*ug/mL)\nPlasma Drug Y`,
      #   3: `AUC Infinity Obs (day*ug/mL)\nPlasma Drug X/Plasma Drug Y`
      # i 3 more variables: `Max Conc (ug/mL)\nPlasma Drug X` <dbl>,
      #   `Max Conc (ug/mL)\nPlasma Drug Y` <dbl>,
      #   `Max Conc (ug/mL)\nPlasma Drug X/Plasma Drug Y` <dbl>
