# listings/disposition/dsl01.qmd development

    Code
      print(data_snap[[i]])
    Output
      # A tibble: 23 x 6
         TRT01A     ID            ASR                                   SSADM    
         <lstng_ky> <chr>         <chr>                                 <chr>    
       1 A: Drug X  RUS-18/id-359 47/F/BLACK OR AFRICAN AMERICAN        08JUN2019
       2 A: Drug X  BRA-1/id-42   36/M/BLACK OR AFRICAN AMERICAN        01JAN2020
       3 A: Drug X  CHN-11/id-256 23/M/ASIAN                            17MAR2020
       4 A: Drug X  CHN-1/id-26   29/M/WHITE                            16JUL2020
       5 A: Drug X  CHN-1/id-62   36/F/WHITE                            22NOV2020
       6 B: Placebo CHN-7/id-28   40/M/AMERICAN INDIAN OR ALASKA NATIVE 11MAR2019
       7 B: Placebo CHN-13/id-102 37/M/ASIAN                            23MAR2019
       8 B: Placebo CHN-3/id-333  30/F/BLACK OR AFRICAN AMERICAN        13JAN2020
       9 B: Placebo USA-12/id-226 30/M/WHITE                            29JAN2020
      10 B: Placebo CHN-9/id-147  26/F/ASIAN                            06FEB2020
         STDWD DISCONT
         <dbl> <chr>  
       1  1096 No     
       2    NA No     
       3  1096 No     
       4  1096 No     
       5   455 Yes    
       6  1096 No     
       7  1096 No     
       8    NA No     
       9    NA No     
      10    NA No     
      # i 13 more rows
