# lsting

    Code
      print(data_snap[[i]])
    Output
      # A tibble: 23 x 6
         ID            ASR                            TRT01A       SSADM STDWD DISCONT
         <lstng_ky>    <chr>                          <fct>        <chr> <dbl> <chr>  
       1 BRA-1/id-42   36/M/BLACK OR AFRICAN AMERICAN A: Drug X    01JA~    NA No     
       2 BRA-11/id-237 64/F/ASIAN                     C: Combinat~ 10MA~  1096 No     
       3 CHN-1/id-26   29/M/WHITE                     A: Drug X    16JU~  1096 No     
       4 CHN-1/id-62   36/F/WHITE                     A: Drug X    22NO~   455 Yes    
       5 CHN-11/id-256 23/M/ASIAN                     A: Drug X    17MA~  1096 No     
       6 CHN-11/id-257 32/F/ASIAN                     C: Combinat~ 15NO~  1096 No     
       7 CHN-11/id-263 34/F/ASIAN                     C: Combinat~ 03AP~  1096 No     
       8 CHN-11/id-349 40/M/ASIAN                     C: Combinat~ 13NO~  1096 No     
       9 CHN-11/id-91  44/M/BLACK OR AFRICAN AMERICAN C: Combinat~ 29MA~   625 Yes    
      10 CHN-13/id-102 37/M/ASIAN                     B: Placebo   23MA~  1096 No     
      # i 13 more rows
