# lsting

    Code
      print(data_snap[[i]])
    Output
      # A tibble: 2,400 x 11
         TRT01A CRTNPT AGSXRC AVISIT ADY   AVAL_ANRIND_HR CHG_HR AVAL_ANRIND_QT CHG_QT
         <lstn> <lstn> <lstn> <lstn> <lst> <chr>          <chr>  <chr>          <chr> 
       1 A: Dr~ BRA-1~ 38/M/~ BASEL~ 149   "  66.94"      "    ~ " 441.78"      "    ~
       2 A: Dr~ BRA-1~ 38/M/~ WEEK ~ 314   "  63.18"      "   -~ " 365.68"      "  -7~
       3 A: Dr~ BRA-1~ 38/M/~ WEEK ~ 398   "  57.57"      "   -~ " 355.48"      "  -8~
       4 A: Dr~ BRA-1~ 38/M/~ WEEK ~ 470   "  73.36"      "    ~ " 352.45"      "  -8~
       5 A: Dr~ BRA-1~ 38/M/~ WEEK ~ 528   "  53.72"      "  -1~ " 388.42"      "  -5~
       6 A: Dr~ BRA-1~ 38/M/~ WEEK ~ 535   "  58.25"      "   -~ " 291.77"      " -15~
       7 A: Dr~ BRA-1~ 47/M/~ BASEL~ 227   "  46.99"      "    ~ " 385.29"      "    ~
       8 A: Dr~ BRA-1~ 47/M/~ WEEK ~ 255   "  48.38"      "    ~ " 453.74"      "   6~
       9 A: Dr~ BRA-1~ 47/M/~ WEEK ~ 269   "  35.40/L"    "  -1~ " 413.54"      "   2~
      10 A: Dr~ BRA-1~ 47/M/~ WEEK ~ 357   "  60.50"      "   1~ " 394.23"      "    ~
      # i 2,390 more rows
      # i 2 more variables: AVAL_ANRIND_RR <chr>, CHG_RR <chr>
