# lsting

    Code
      print(data_snap[[i]])
    Output
      # A tibble: 798 x 6
         TRT01A     USUBJID           AVISIT AUC Infinity Obs (da~1 `Max Conc (ug/mL)`
         <lstng_ky> <lstng_ky>        <lstn>                  <dbl>              <dbl>
       1 A: Drug X  AB12345-BRA-1-id~ SCREE~                   145.               35.5
       2 A: Drug X  AB12345-BRA-1-id~ CYCLE~                   246.               31.2
       3 A: Drug X  AB12345-BRA-1-id~ CYCLE~                   225.               43.5
       4 A: Drug X  AB12345-BRA-1-id~ SCREE~                   157.               32.1
       5 A: Drug X  AB12345-BRA-1-id~ CYCLE~                   249.               21.8
       6 A: Drug X  AB12345-BRA-1-id~ CYCLE~                   231.               21.1
       7 A: Drug X  AB12345-BRA-1-id~ SCREE~                   194.               20.5
       8 A: Drug X  AB12345-BRA-1-id~ CYCLE~                   211.               26.8
       9 A: Drug X  AB12345-BRA-1-id~ CYCLE~                   168.               34.8
      10 A: Drug X  AB12345-BRA-1-id~ SCREE~                   187.               27.4
      # i 788 more rows
      # i abbreviated name: 1: `AUC Infinity Obs (day*ug/mL)`
      # i 1 more variable: `Total CL Obs (ml/day/kg)` <dbl>
