# lsting

    Code
      print(data_snap[[i]])
    Output
      # A tibble: 1,200 x 9
         TRT01A     ID            AVAL Best Confirmed Overall~1 Investigator End Of ~2
         <lstng_ky> <lstng_ky>   <dbl> <fct>                    <fct>                 
       1 A: Drug X  BRA-1/id-105     7 CR                       CR                    
       2 A: Drug X  BRA-1/id-105     7 CR                       CR                    
       3 A: Drug X  BRA-1/id-105     7 CR                       CR                    
       4 A: Drug X  BRA-1/id-134     7 CR                       CR                    
       5 A: Drug X  BRA-1/id-134     7 CR                       CR                    
       6 A: Drug X  BRA-1/id-134     7 CR                       CR                    
       7 A: Drug X  BRA-1/id-42      7 PR                       PR                    
       8 A: Drug X  BRA-1/id-42      7 PR                       PR                    
       9 A: Drug X  BRA-1/id-42      7 PR                       PR                    
      10 A: Drug X  BRA-1/id-93      7 CR                       PD                    
      # i 1,190 more rows
      # i abbreviated names: 1: `Best Confirmed Overall Response by Investigator`,
      #   2: `Investigator End Of Induction Response`
      # i 4 more variables: `Overall Survival (DAYS)` <chr>,
      #   `Progression Free Survival (DAYS)` <chr>, trigeventpfs <chr>,
      #   `Duration of Confirmed Response (DAYS)` <chr>
