# listings/ADA/adal02.qmd lsting development

    Code
      print(data_snap[[i]])
    Output
      # A tibble: 268 × 11
         USUBJID               VISIT      ISTPT   NFRLT ADA   NAB   RESULT1  RESULT2  ADASTAT1   ADASTAT2   AVAL_pk
         <lstng_ky>            <lstng_ky> <fct>   <chr> <chr> <chr> <chr>    <chr>    <chr>      <chr>      <chr>  
       1 AB12345-BRA-1-id-105  Day 1      Predose 0.00  N/A   N/A   Negative Negative "Negative" "Negative" N/A    
       2 AB12345-BRA-1-id-105  Day 2      24H     1.00  N/A   N/A   Negative Negative ""         ""         N/A    
       3 AB12345-BRA-1-id-134  Day 1      Predose 0.00  N/A   N/A   Negative Negative "Negative" "Negative" N/A    
       4 AB12345-BRA-1-id-134  Day 2      24H     1.00  N/A   N/A   Negative Negative ""         ""         N/A    
       5 AB12345-BRA-1-id-42   Day 1      Predose 0.00  N/A   N/A   Negative Negative "Negative" "Negative" N/A    
       6 AB12345-BRA-1-id-42   Day 2      24H     1.00  N/A   N/A   Negative Negative ""         ""         N/A    
       7 AB12345-BRA-1-id-93   Day 1      Predose 0.00  N/A   N/A   Negative Negative "Positive" "Negative" N/A    
       8 AB12345-BRA-1-id-93   Day 2      24H     1.00  1.01  1.01  Positive Positive ""         ""         N/A    
       9 AB12345-BRA-11-id-217 Day 1      Predose 0.00  1.08  1.08  Positive Positive "Positive" "Negative" N/A    
      10 AB12345-BRA-11-id-217 Day 2      24H     1.00  1.23  1.23  Positive Positive ""         ""         N/A    
      # i 258 more rows
