# listings/lab-results/lbl01_rls.qmd lsting development

    Code
      print(data_snap[[i]])
    Output
      # A tibble: 2,800 x 7
         TRT01A     CPID           ADY   DLD `ALT\n(U/L)` `CRP\n(mg/L)` `IGA\n(g/L)`
         <lstng_ky> <lstng_ky>   <int> <int> <chr>        <chr>         <chr>       
       1 A: Drug X  BRA-1/id-105    80    NA " 4.30 / L"  " 9.09"       " 2.84"     
       2 A: Drug X  BRA-1/id-105   149    69 "24.70"      " 9.15"       " 2.93"     
       3 A: Drug X  BRA-1/id-105   314   165 "24.87"      "10.89 / H"   " 2.66"     
       4 A: Drug X  BRA-1/id-105   398    84 " 3.67 / L"  " 8.14"       " 2.86"     
       5 A: Drug X  BRA-1/id-105   470    72 "18.55"      "10.59 / H"   " 2.88"     
       6 A: Drug X  BRA-1/id-105   528    58 " 7.73"      "10.09 / H"   " 2.93"     
       7 A: Drug X  BRA-1/id-105   535     7 "23.51"      " 9.20"       " 2.88"     
       8 A: Drug X  BRA-1/id-134   225    NA " 7.37"      "10.46 / H"   " 2.86"     
       9 A: Drug X  BRA-1/id-134   227     2 "16.42"      " 7.43 / L"   " 2.76"     
      10 A: Drug X  BRA-1/id-134   255    28 "11.16"      " 9.41"       " 2.75"     
      # i 2,790 more rows
