# listings/lab-results/lbl01.qmd lsting development

    Code
      print(data_snap[[i]])
    Output
      # A tibble: 2,800 x 7
         TRT01A     CPID           ADY   DLD `ALT\n(U/L / NCI CTCAE grade)`
         <lstng_ky> <lstng_ky>   <int> <int> <chr>                         
       1 A: Drug X  BRA-1/id-105    80    NA " 4.30 / L4"                  
       2 A: Drug X  BRA-1/id-105   149    69 "24.70"                       
       3 A: Drug X  BRA-1/id-105   314   165 "24.87"                       
       4 A: Drug X  BRA-1/id-105   398    84 " 3.67 / L3"                  
       5 A: Drug X  BRA-1/id-105   470    72 "18.55"                       
       6 A: Drug X  BRA-1/id-105   528    58 " 7.73"                       
       7 A: Drug X  BRA-1/id-105   535     7 "23.51"                       
       8 A: Drug X  BRA-1/id-134   225    NA " 7.37"                       
       9 A: Drug X  BRA-1/id-134   227     2 "16.42"                       
      10 A: Drug X  BRA-1/id-134   255    28 "11.16"                       
         `CRP\n(mg/L / NCI CTCAE grade)` `IGA\n(g/L / NCI CTCAE grade)`
         <chr>                           <chr>                         
       1 " 9.09"                         " 2.84"                       
       2 " 9.15"                         " 2.93"                       
       3 "10.89 / H2"                    " 2.66"                       
       4 " 8.14"                         " 2.86"                       
       5 "10.59 / H3"                    " 2.88"                       
       6 "10.09 / H3"                    " 2.93"                       
       7 " 9.20"                         " 2.88"                       
       8 "10.46 / H1"                    " 2.86"                       
       9 " 7.43 / L1"                    " 2.76"                       
      10 " 9.41"                         " 2.75"                       
      # i 2,790 more rows
