# lsting

    Code
      print(data_snap[[i]])
    Output
      # A tibble: 70 x 8
         TRT01A     ID            AGSXRC            TRTSD EOSDY DTHADY DTHCAUS ADTHAUT
         <lstng_ky> <lstng_ky>    <chr>             <chr> <int>  <int> <fct>   <fct>  
       1 A: Drug X  BRA-1/id-134  47/M/WHITE        04NO~   473    496 ADVERS~ Yes    
       2 A: Drug X  BRA-1/id-93   34/F/ASIAN        20JU~   610    657 ADVERS~ Yes    
       3 A: Drug X  BRA-11/id-217 43/M/ASIAN        28SE~   871    893 ADVERS~ Yes    
       4 A: Drug X  BRA-15/id-36  38/F/ASIAN        08JA~   767    812 DISEAS~ Yes    
       5 A: Drug X  CAN-11/id-139 31/M/ASIAN        15SE~   519    563 ADVERS~ Yes    
       6 A: Drug X  CHN-1/id-123  27/F/ASIAN        28JA~   750    750 DISEAS~ Yes    
       7 A: Drug X  CHN-1/id-199  27/M/BLACK OR AF~ 08JA~   773    779 DISEAS~ Yes    
       8 A: Drug X  CHN-1/id-235  39/M/ASIAN        13JU~   950    968 ADVERS~ Yes    
       9 A: Drug X  CHN-1/id-62   36/F/WHITE        22NO~   455    497 ADVERS~ Yes    
      10 A: Drug X  CHN-12/id-258 45/M/WHITE        01MA~   721    756 SUICIDE No     
      # i 60 more rows
