# lsting

    Code
      print(data_snap[[i]])
    Output
      # A tibble: 2,800 x 7
         CPID         TRT01A       ADY   DLD `ALT\n(U/L)` `CRP\n(mg/L)` `IGA\n(g/L)`
         <lstng_ky>   <lstng_ky> <int> <int> <chr>        <chr>         <chr>       
       1 BRA-1/id-105 A: Drug X     80    NA " 4.30 / L"  " 9.09"       " 2.84"     
       2 BRA-1/id-105 A: Drug X    149    69 "24.70"      " 9.15"       " 2.93"     
       3 BRA-1/id-105 A: Drug X    314   165 "24.87"      "10.89 / H"   " 2.66"     
       4 BRA-1/id-105 A: Drug X    398    84 " 3.67 / L"  " 8.14"       " 2.86"     
       5 BRA-1/id-105 A: Drug X    470    72 "18.55"      "10.59 / H"   " 2.88"     
       6 BRA-1/id-105 A: Drug X    528    58 " 7.73"      "10.09 / H"   " 2.93"     
       7 BRA-1/id-105 A: Drug X    535     7 "23.51"      " 9.20"       " 2.88"     
       8 BRA-1/id-134 A: Drug X    225    NA " 7.37"      "10.46 / H"   " 2.86"     
       9 BRA-1/id-134 A: Drug X    227     2 "16.42"      " 7.43 / L"   " 2.76"     
      10 BRA-1/id-134 A: Drug X    255    28 "11.16"      " 9.41"       " 2.75"     
      # i 2,790 more rows
