# lsting

    Code
      print(data_snap[[i]])
    Output
      # A tibble: 2,000 x 17
         TRT01A     CRTNPT     AGSXRC       AVISIT   ADY AVAL_ANRIND_WEIGHT CHG_WEIGHT
         <lstng_ky> <lstng_ky> <lstng_ky>   <lstn> <int> <chr>              <chr>     
       1 A: Drug X  BRA-1/105  38/M/BLACK ~ WEEK ~   189 " 90.96"           "  24.62" 
       2 A: Drug X  BRA-1/105  38/M/BLACK ~ WEEK ~   323 " 41.40"           " -24.93" 
       3 A: Drug X  BRA-1/105  38/M/BLACK ~ WEEK ~   492 " 60.55"           "  -5.78" 
       4 A: Drug X  BRA-1/105  38/M/BLACK ~ WEEK ~   550 " 69.69"           "   3.36" 
       5 A: Drug X  BRA-1/105  38/M/BLACK ~ WEEK ~   628 " 81.64"           "  15.30" 
       6 A: Drug X  BRA-1/134  47/M/WHITE   WEEK ~   203 " 42.95"           " -12.51" 
       7 A: Drug X  BRA-1/134  47/M/WHITE   WEEK ~   326 " 20.36/L"         " -35.09" 
       8 A: Drug X  BRA-1/134  47/M/WHITE   WEEK ~   363 " 46.33"           "  -9.12" 
       9 A: Drug X  BRA-1/134  47/M/WHITE   WEEK ~   367 " 43.83"           " -11.62" 
      10 A: Drug X  BRA-1/134  47/M/WHITE   WEEK ~   417 " 31.75/L"         " -23.71" 
      # i 1,990 more rows
      # i 10 more variables: AVAL_ANRIND_TEMP <chr>, CHG_TEMP <chr>,
      #   AVAL_ANRIND_DIABP <chr>, CHG_DIABP <chr>, AVAL_ANRIND_SYSBP <chr>,
      #   CHG_SYSBP <chr>, AVAL_ANRIND_PULSE <chr>, CHG_PULSE <chr>,
      #   AVAL_ANRIND_RESP <chr>, CHG_RESP <chr>
