# lsting

    Code
      print(data_snap[[i]])
    Output
      # A tibble: 1,934 x 11
         ID     ASR   TRT01A MHBODSYS MHDECOD TRTSDTM ASTDTM ASTDY AENDTM AENDY ATIREL
         <lstn> <lst> <lstn> <lstng_> <lstng> <chr>   <chr>  <int> <chr>  <int> <fct> 
       1 BRA-1~ 47/M~ A: Dr~ cl A     trm A_~ 04NOV2~ 21SEP~   321 16FEB~   469 PRIOR~
       2 BRA-1~ 47/M~ A: Dr~ cl A     trm A_~ 04NOV2~ 02DEC~   393 13JAN~   435 PRIOR~
       3 BRA-1~ 47/M~ A: Dr~ cl B     trm B_~ 04NOV2~ 15APR~   162 04OCT~   334 PRIOR~
       4 BRA-1~ 47/M~ A: Dr~ cl D     trm D_~ 04NOV2~ 19MAY~   196 31OCT~   361 PRIOR~
       5 BRA-1~ 35/F~ C: Co~ cl A     trm A_~ 25JUL2~ 03AUG~   739 07SEP~   774 PRIOR~
       6 BRA-1~ 35/F~ C: Co~ cl A     trm A_~ 25JUL2~ 03MAR~   951 07MAY~  1016 PRIOR~
       7 BRA-1~ 35/F~ C: Co~ cl A     trm A_~ 25JUL2~ 10JAN~   899 28MAY~  1037 PRIOR~
       8 BRA-1~ 35/F~ C: Co~ cl B     trm B_~ 25JUL2~ 16AUG~   387 26AUG~   397 PRIOR~
       9 BRA-1~ 35/F~ C: Co~ cl D     trm D_~ 25JUL2~ 23JUL~  1093 25JUL~  1095 PRIOR~
      10 BRA-1~ 35/F~ C: Co~ cl D     trm D_~ 25JUL2~ 23OCT~   455 12JUL~  1082 PRIOR~
      # i 1,924 more rows
