# lsting

    Code
      print(data_snap[[i]])
    Output
      # A tibble: 1,112 x 10
         TRT01A     LBTEST        CPID    ADY ADTM    DLD AVAL  AVALU LBNRNG ANRIND_GR
         <lstng_ky> <lstng_ky>    <lst> <int> <chr> <dbl> <chr> <fct> <chr>  <fct>    
       1 A: Drug X  Alanine Amin~ BRA-~    80 27MA~     0 " 4.~ U/L   7.0 -~ L4       
       2 A: Drug X  Alanine Amin~ BRA-~   398 10AP~   318 " 3.~ U/L   7.0 -~ L3       
       3 A: Drug X  Alanine Amin~ CAN-~   465 12AP~     0 " 1.~ U/L   7.0 -~ L2       
       4 A: Drug X  Alanine Amin~ CHN-~   127 13DE~     0 " 5.~ U/L   7.0 -~ L2       
       5 A: Drug X  Alanine Amin~ CHN-~   197 21FE~    70 " 1.~ U/L   7.0 -~ L4       
       6 A: Drug X  Alanine Amin~ CHN-~   277 11OC~     0 " 5.~ U/L   7.0 -~ L4       
       7 A: Drug X  Alanine Amin~ CHN-~   672 10NO~   395 " 6.~ U/L   7.0 -~ L2       
       8 A: Drug X  Alanine Amin~ CHN-~   348 25JU~     0 " 3.~ U/L   7.0 -~ L3       
       9 A: Drug X  Alanine Amin~ CHN-~   364 01JU~     0 " 5.~ U/L   7.0 -~ L2       
      10 A: Drug X  Alanine Amin~ CHN-~   483 12MA~     0 " 1.~ U/L   7.0 -~ L4       
      # i 1,102 more rows
