# lsting

    Code
      print(data_snap[[i]])
    Output
      # A tibble: 2,800 x 7
         TRT01A     CPID       ADY   DLD ALT\n(U/L / NCI CTCA~1 CRP\n(mg/L / NCI CTC~2
         <lstng_ky> <lstng_> <int> <int> <chr>                  <chr>                 
       1 A: Drug X  BRA-1/i~    80    NA " 4.30 / L4"           " 9.09"               
       2 A: Drug X  BRA-1/i~   149    69 "24.70"                " 9.15"               
       3 A: Drug X  BRA-1/i~   314   165 "24.87"                "10.89 / H2"          
       4 A: Drug X  BRA-1/i~   398    84 " 3.67 / L3"           " 8.14"               
       5 A: Drug X  BRA-1/i~   470    72 "18.55"                "10.59 / H3"          
       6 A: Drug X  BRA-1/i~   528    58 " 7.73"                "10.09 / H3"          
       7 A: Drug X  BRA-1/i~   535     7 "23.51"                " 9.20"               
       8 A: Drug X  BRA-1/i~   225    NA " 7.37"                "10.46 / H1"          
       9 A: Drug X  BRA-1/i~   227     2 "16.42"                " 7.43 / L1"          
      10 A: Drug X  BRA-1/i~   255    28 "11.16"                " 9.41"               
      # i 2,790 more rows
      # i abbreviated names: 1: `ALT\n(U/L / NCI CTCAE grade)`,
      #   2: `CRP\n(mg/L / NCI CTCAE grade)`
      # i 1 more variable: `IGA\n(g/L / NCI CTCAE grade)` <chr>
