# lsting

    Code
      print(data_snap[[i]])
    Output
      # A tibble: 8,400 x 11
         TRT01A     LBTEST_U CPID    ADY   DLD AVAL  PCHG  STD_RNG LBNRNG CRC   ANRIND
         <lstng_ky> <lstng_> <lst> <int> <dbl> <chr> <chr> <chr>   <chr>  <chr> <fct> 
       1 A: Drug X  Alanine~ BRA-~    80     0 " 4.~ "   ~ 5.5 - ~ 7 - 55 40% ~ "LL"  
       2 A: Drug X  Alanine~ BRA-~   149    69 "24.~ "   ~ 5.5 - ~ 7 - 55 40% ~ ""    
       3 A: Drug X  Alanine~ BRA-~   314   165 "24.~ "   ~ 5.5 - ~ 7 - 55 40% ~ ""    
       4 A: Drug X  Alanine~ BRA-~   398    84 " 3.~ "   ~ 5.5 - ~ 7 - 55 40% ~ "LL"  
       5 A: Drug X  Alanine~ BRA-~   470    72 "18.~ "   ~ 5.5 - ~ 7 - 55 40% ~ ""    
       6 A: Drug X  Alanine~ BRA-~   528    58 " 7.~ "   ~ 5.5 - ~ 7 - 55 40% ~ ""    
       7 A: Drug X  Alanine~ BRA-~   535     7 "23.~ "   ~ 5.5 - ~ 7 - 55 40% ~ ""    
       8 A: Drug X  Alanine~ BRA-~   225     0 " 7.~ "   ~ 5.5 - ~ 7 - 55 40% ~ ""    
       9 A: Drug X  Alanine~ BRA-~   227     2 "16.~ "   ~ 5.5 - ~ 7 - 55 40% ~ ""    
      10 A: Drug X  Alanine~ BRA-~   255    28 "11.~ "   ~ 5.5 - ~ 7 - 55 40% ~ ""    
      # i 8,390 more rows
