# listings/lab-results/lbl02a.qmd stable

    Code
      print(data_snap[[i]])
    Output
      # A tibble: 1,645 x 9
         TRT01A     LBTEST_U                                   CPID            ADY
         <lstng_ky> <lstng_ky>                                 <lstng_ky>    <int>
       1 A: Drug X  Alanine Aminotransferase Measurement (U/L) BRA-1/id-105     80
       2 A: Drug X  Alanine Aminotransferase Measurement (U/L) BRA-1/id-105    398
       3 A: Drug X  Alanine Aminotransferase Measurement (U/L) BRA-1/id-93     207
       4 A: Drug X  Alanine Aminotransferase Measurement (U/L) BRA-11/id-397   326
       5 A: Drug X  Alanine Aminotransferase Measurement (U/L) BRA-14/id-23    594
       6 A: Drug X  Alanine Aminotransferase Measurement (U/L) BRA-2/id-296    281
       7 A: Drug X  Alanine Aminotransferase Measurement (U/L) BRA-2/id-296    734
       8 A: Drug X  Alanine Aminotransferase Measurement (U/L) CAN-1/id-18     465
       9 A: Drug X  Alanine Aminotransferase Measurement (U/L) CHN-1/id-133    127
      10 A: Drug X  Alanine Aminotransferase Measurement (U/L) CHN-1/id-133    197
         ADTM        DLD AVAL   LBNRNG     ANRIND_GR
         <chr>     <dbl> <chr>  <chr>      <fct>    
       1 27MAY2020     0 " 4.3" 7.0 - 55.0 L4       
       2 10APR2021   318 " 3.7" 7.0 - 55.0 L3       
       3 13JAN2021     0 " 6.1" 7.0 - 55.0 L1       
       4 19MAY2021     0 " 1.5" 7.0 - 55.0 L1       
       5 22JUN2021     0 " 0.6" 7.0 - 55.0 L1       
       6 30OCT2021     0 " 2.6" 7.0 - 55.0 L1       
       7 26JAN2023   453 " 3.9" 7.0 - 55.0 L1       
       8 12APR2022     0 " 1.8" 7.0 - 55.0 L2       
       9 13DEC2020     0 " 5.6" 7.0 - 55.0 L2       
      10 21FEB2021    70 " 1.2" 7.0 - 55.0 L4       
      # i 1,635 more rows
